BIBLIOTECA;CALLE;ALTURA;CALLE_2;PISO;TELEFONO;OBSERVACIONES;DIRECCION NORMALIZADA;BARRIO;COMUNA;CODIGO_POSTAL;CODIGO_POSTAL_ARGENTINO;LAT;LNG
ALFONSINA STORNI;VENEZUELA;1538;;1;4381-9345;;REPUBLICA BOLIVARIANA DE VENEZUELA 1538;MONSERRAT;COMUNA 1;1095;C1095ABF;-34.61471615;-58.38814023
ALVARO YUNQUE;SOLDADO DE LA FRONTERA;5210;;BLOCK 28;4605-0603;;SOLDADO DE LA FRONTERA AV. 5210;VILLA LUGANO;COMUNA 8;1439;C1439FPH;-34.68500227;-58.46355244
ANTONIO DEVOTO;BAHIA BLANCA;4025;;;4501-4320;;BAHIA BLANCA 4025;VILLA DEVOTO;COMUNA 11;1419;C1419BAI;-34.59931264;-58.51089426
BALDOMERO F. MORENO;CONCEPCION ARENAL;4206;;;4855-7508;;ARENAL, CONCEPCION 4206;CHACARITA;COMUNA 15;1427;C1427EKR;-34.59135317;-58.45036314
BENITO LYNCH;PJE. YRUPE;6714;;;4687-1977;;YRUPE 6714;MATADEROS;COMUNA 9;1440;C1440BND;-34.66767394;-58.49687189
CARLOS GUIDO Y SPANO;GÜEMES;4601;;;4773-5862;;GUEMES 4601;PALERMO;COMUNA 14;1425;C1425BLI;-34.58134893;-58.4238742
CIRCE;AV. CORDOBA;1558;;1;4812-4723;;CORDOBA AV. 1558;SAN NICOLAS;COMUNA 1;1055;C1055AAS;-34.59948861;-58.38913737
CNGO. LUIS CHORROARIN;SOLDADO DE LA FRONTERA;5059;;BLOCK 23;4605-9341;;SOLDADO DE LA FRONTERA AV. 5059;VILLA LUGANO;COMUNA 8;1439;C1439FPC;-34.68379956;-58.46510887
CORNELIO SAAVEDRA;CRISOLOGO LARRALDE;6293;;;4571-2538;;LARRALDE, CRISOLOGO AV. 6293;SAAVEDRA;COMUNA 12;1431;C1431AQE;-34.56872052;-58.50724152
ENRIQUE BANCHS;CASEROS;;URQUIZA;;4943-1078;;CASEROS AV. Y URQUIZA, GRAL.;PARQUE PATRICIOS;COMUNA 4;;;-34.63745675;-58.40755681
ESTANISLAO DEL CAMPO;PJE. DE LAS ARTES;1210;;;4926-0161;;DE LAS ARTES 1210;PARQUE CHACABUCO;COMUNA 7;1424;C1424BCH;-34.63405164;-58.4383377
EVARISTO CARRIEGO;HONDURAS;3784;;;4963-2194;CERRADA POR REPARACIONES;HONDURAS AV. 3784;PALERMO;COMUNA 14;1180;C1180ACB;-34.59414261;-58.41611355
HILARIO ASCASUBI;GRAL. CESAR DIAZ;4219;;;4566-5171;;DIAZ, CESAR, GRAL. 4219;FLORESTA;COMUNA 10;1407;C1407ETS;-34.62333665;-58.49222268
JAVIER VILLAFAÑE;ANA M. JANER;MANZANA 5 - LOCAL 279;;;4919-0058;;JANER, ANA MARIA;;;;;;
JOAQUIN V GONZALEZ;SUAREZ;408;;;4302-2481;;SUAREZ 408;BOCA;COMUNA 4;1162;C1162AEJ;-34.63541964;-58.35903829
JOSE HERNANDEZ;BOQUERON;6753;;;4641-3673;;BOQUERON 6753;LINIERS;COMUNA 9;1408;C1408EHA;-34.64636248;-58.52096278
JOSE MARMOL;JURAMENTO;2937;;;4781-7871;;JURAMENTO 2937;BELGRANO;COMUNA 13;1428;C1428DNY;-34.5649432;-58.46168695
JULIO C. SAGUIER;AV. DELLEPIANE NORTE;4801;;TORRE 14 - PB;4635-4009;;DELLEPIANE, LUIS, TTE. GRAL. 4801;VILLA LUGANO;COMUNA 8;;;-34.66598172;-58.47450038
JULIO CORTAZAR;LAVALLEJA;924;;1;5197-5084;;LAVALLEJA 924;VILLA CRESPO;COMUNA 15;1414;C1414DTT;-34.59788545;-58.42980236
LA PRENSA;PEPIRI;;J. C. PAZ;;4912-2701;PLAZA NICARAGUA;PEPIRI Y PAZ, JOSE C.;PARQUE PATRICIOS;COMUNA 4;;;-34.64504439;-58.40971423
LEOPOLDO LUGONES;LA PAMPA;2215;;;4783-1567;;LA PAMPA 2215;BELGRANO;COMUNA 13;1428;C1428EAM;-34.56383684;-58.45259477
MANUEL GALVEZ;AV. CORDOBA;1558;;;4812-4723;;CORDOBA AV. 1558;SAN NICOLAS;COMUNA 1;1055;C1055AAS;-34.59948861;-58.38913737
MARIANO PELLIZA;PJE. CRANWELL;819;;;4631-0961;;CRANWELL 819;FLORES;COMUNA 7;1406;C1406EBG;-34.63780971;-58.45644862
MARTIN DEL BARCO CENTENERA;VENEZUELA;1538;;;4381-1271;;REPUBLICA BOLIVARIANA DE VENEZUELA 1538;MONSERRAT;COMUNA 1;1095;C1095ABF;-34.61471615;-58.38814023
MIGUEL CANE;CARLOS CALVO;4319;;;4922-0020;;CALVO, CARLOS AV. 4319;BOEDO;COMUNA 5;1230;C1230ABY;-34.62500985;-58.42634721
NORA LANGE;AV. FRANCISCO F. DE LA CRUZ;;ESCALADA;;;INTERIOR DEL PARQUE DE LA CIUDAD;FERNANDEZ DE LA CRUZ, F., GRAL. AV. Y ESCALADA AV.;VILLA LUGANO;COMUNA 8;;;-34.67375025;-58.4590036
RAFAEL OBLIGADO;PJE. CRAINQUEVILLE;2233;;;4581-8640;;CRAINQUEVILLE 2233;VILLA SANTA RITA;COMUNA 11;1416;C1416AVC;-34.60957834;-58.48392036
REINA BATATA;LA PAMPA;;11 DE SEPTIEMBRE;;4783-3648;PLAZA BARRANCAS;LA PAMPA Y 11 DE SEPTIEMBRE DE 1888;BELGRANO;COMUNA 13;;;-34.56159884;-58.44872118
RICARDO GÜIRALDES;TALCAHUANO;1261;;;4812-3118;;TALCAHUANO 1261;RETIRO;COMUNA 1;1014;C1014ADA;-34.59363838;-58.38594652
